…
An R package for building and scheduling tournaments.

### Build

Build your very own tournament!

``` r
library(tournamentbuildr)

# build a round-robin tournament
x <- Tournament$new(teams = LETTERS[1:8], type = "round_robin")

# view the schedule
x$schedule
#> # A tibble: 28 x 4
#>     game home  away  winner
#>    <int> <chr> <chr> <chr> 
#>  1     1 A     B     <NA>  
#>  2     2 A     C     <NA>  
#>  3     3 A     D     <NA>  
#>  4     4 A     E     <NA>  
#>  5     5 A     F     <NA>  
#>  6     6 A     G     <NA>  
#>  7     7 A     H     <NA>  
#>  8     8 B     C     <NA>  
#>  9     9 B     D     <NA>  
#> 10    10 B     E     <NA>  
#> # ... with 18 more rows
```
…
